AntiFeatures:NonFreeNet,Tracking
Categories:Internet,Science & Education,Sports & Health
License:GPL-3.0-only
Author Name:Nicco Kunzmann
Author Email:niccokunzmann@rambler.ru
Web Site:https://github.com/niccokunzmann/mundraub-android
Source Code:https://github.com/niccokunzmann/mundraub-android
Issue Tracker:https://github.com/niccokunzmann/mundraub-android/issues

Auto Name:Fruit Radar

Repo Type:git
Repo:https://github.com/niccokunzmann/mundraub-android.git

Build:1.0,1
    commit=v1.0
    subdir=app
    gradle=yes

Build:1.8,9
    commit=v1.8
    subdir=app
    gradle=yes

Build:1.13,14
    commit=v1.13
    subdir=app
    gradle=yes

Build:1.18,19
    commit=v1.18
    subdir=app
    gradle=yes

Build:1.22,23
    commit=v1.22
    subdir=app
    gradle=yes

Build:1.26,27
    commit=v1.26
    subdir=app
    gradle=yes

Build:1.27,28
    commit=v1.27
    subdir=app
    gradle=yes

Build:1.30,31
    commit=v1.30
    subdir=app
    gradle=yes

Build:1.36,37
    commit=v1.36
    subdir=app
    gradle=yes

Build:1.43,44
    commit=v1.43
    subdir=app
    gradle=yes

Build:1.47,48
    commit=v1.47
    subdir=app
    gradle=yes

Build:1.61,62
    commit=v1.61
    subdir=app
    gradle=yes

Build:1.62,63
    commit=v1.62
    subdir=app
    gradle=yes

Build:1.63,64
    commit=v1.63
    subdir=app
    gradle=yes

Build:1.66,67
    commit=v1.66
    subdir=app
    gradle=yes

Build:1.71,72
    commit=v1.71
    subdir=app
    gradle=yes

Build:1.79,80
    disable=app/src/main/res/values-fr_FR: Error: Invalid resource directory name
    commit=v1.79
    subdir=app
    gradle=yes

Build:1.90,91
    commit=v1.90
    subdir=app
    gradle=yes

Build:1.95,96
    commit=v1.95
    subdir=app
    gradle=yes

Build:1.109,110
    commit=v1.109
    subdir=app
    gradle=yes

Build:1.112,113
    commit=v1.112
    subdir=app
    gradle=yes

Build:1.117,118
    commit=v1.117
    subdir=app
    gradle=yes

Build:1.125,126
    commit=v1.125
    subdir=app
    gradle=yes

Build:1.133,134
    commit=v1.133
    subdir=app
    gradle=yes

Build:1.136,137
    commit=v1.136
    subdir=app
    gradle=yes

Build:1.140,141
    commit=v1.140
    subdir=app
    gradle=yes

Auto Update Mode:Version v%v
Update Check Mode:Tags
Current Version:1.140
Current Version Code:141
